{
  "tests" : [ {
    "name" : "test_studenti.gspec",
    "startedAt" : 1541522828543,
    "endedAt" : 1541522835337,
    "failed" : false,
    "statistic" : {
      "passed" : 6,
      "errors" : 0,
      "warnings" : 0,
      "total" : 6
    },
    "testId" : "1-test-studenti.gspec",
    "duration" : 6794,
    "failed" : false
  } ]
}